{
  "last-edit": "8edbd549-0316-40c4-a66f-9d3805c45237",
  "recent-items": [
    "d9062661-1a21-4b0c-8c0f-496698ebcc38",
    "83de3176-6197-4806-b638-89b4aa15000c",
    "305ca21b-3bd4-472d-9c7c-53625727d62e",
    "cf3126f4-09de-498f-b01a-2cab2e9a89fb",
    "2521d6fd-eaee-41cd-a817-e6771e82c8d0",
    "5d6838f9-f06e-4b78-bd0b-08de60974455",
    "211146f8-e3ba-4c49-b111-c66b23515dd8",
    "4652bb09-29d3-4875-80da-b02671b5906c",
    "c1dba57d-cd10-4792-8e52-4927895268a8",
    "f88eb468-c98c-4752-9f40-b86b55bec015",
    "918ed620-aa68-4742-9abb-7ad662bb335d",
<<<<<<< HEAD
=======
    "67a22fc0-3598-4106-8c8a-1c402f9222bf",
<<<<<<< HEAD
>>>>>>> a0f5344a7cdc6048063a23d3a78daf94c54d1984
    "3d3a440f-6f38-404a-b6ca-ad79ab624efe",
    "45b270e1-78a3-49db-9e07-77f89bb8f6e0",
    "95750a24-25d2-40bc-a54d-f853bc8a9de5",
    "3d912f07-bdbb-4bd0-b4d5-6a189bda8e9d",
    "0baf11ae-d9ae-4aa1-8560-fcc28a2efb35",
    "a1d97414-520e-4329-b05b-77d261669dc2",
    "451031a6-9fef-4937-a4dd-14e5b5a915bc",
    "3b50e94f-31ff-4410-bdd9-c48dfcb229e0",
    "9d916dae-de87-4e50-94af-c068f3792620",
    "12e3a6ca-da20-4792-8d6d-948d831cbfbe",
<<<<<<< HEAD
    "c23605d1-cbae-433c-85ea-a660869df93f",
    "67a22fc0-3598-4106-8c8a-1c402f9222bf",
    "ae90cda3-e163-4db7-8945-00cf78f37b9b",
    "052d89fe-5217-4b12-be0d-76eff10606c8",
    "619f736d-ad00-4f97-aeb1-72ea12432915",
    "8edbd549-0316-40c4-a66f-9d3805c45237"
=======
    "c23605d1-cbae-433c-85ea-a660869df93f"
=======
    "305ca21b-3bd4-472d-9c7c-53625727d62e",
    "ae90cda3-e163-4db7-8945-00cf78f37b9b",
    "9d916dae-de87-4e50-94af-c068f3792620",
    "12e3a6ca-da20-4792-8d6d-948d831cbfbe",
    "a1d97414-520e-4329-b05b-77d261669dc2",
    "052d89fe-5217-4b12-be0d-76eff10606c8",
    "451031a6-9fef-4937-a4dd-14e5b5a915bc",
    "3d912f07-bdbb-4bd0-b4d5-6a189bda8e9d",
    "0baf11ae-d9ae-4aa1-8560-fcc28a2efb35",
    "619f736d-ad00-4f97-aeb1-72ea12432915"
>>>>>>> Andy
>>>>>>> a0f5344a7cdc6048063a23d3a78daf94c54d1984
  ]
}
