{
  "__type__": "cc.SpriteFrame",
  "content": {
    "name": "circle1",
    "texture": "2682291c-8a23-494b-b1af-819196346617",
    "atlas": "",
    "rect": [
      0,
      0,
      38,
      38
    ],
    "offset": [
      0,
      0
    ],
    "originalSize": [
      38,
      38
    ],
    "capInsets": [
      0,
      0,
      0,
      0
    ]
  }
}