{
  "__type__": "cc.SpriteFrame",
  "content": {
    "name": "Icons_21",
    "texture": "75a4443c-6f4b-4ebb-aaa5-ff3f3633aa47",
    "atlas": "",
    "rect": [
      1,
      1,
      30,
      30
    ],
    "offset": [
      0,
      0
    ],
    "originalSize": [
      32,
      32
    ],
    "capInsets": [
      0,
      0,
      0,
      0
    ]
  }
}