{
  "__type__": "cc.SpriteFrame",
  "content": {
    "name": "Icons_13",
    "texture": "7a548529-b0bd-42a7-af10-7a573de2be87",
    "atlas": "",
    "rect": [
      1,
      1,
      30,
      30
    ],
    "offset": [
      0,
      0
    ],
    "originalSize": [
      32,
      32
    ],
    "capInsets": [
      0,
      0,
      0,
      0
    ]
  }
}