{
  "__type__": "cc.SpriteFrame",
  "content": {
    "name": "Map_tile_111",
    "texture": "ed31a7e7-cd39-45fb-9dc7-418a3b261f15",
    "atlas": "",
    "rect": [
      0,
      0,
      32,
      32
    ],
    "offset": [
      0,
      0
    ],
    "originalSize": [
      32,
      32
    ],
    "capInsets": [
      0,
      0,
      0,
      0
    ]
  }
}