{
  "__type__": "cc.SpriteFrame",
  "content": {
    "name": "Map_tile_53",
    "texture": "9fe6d1c6-dacf-442c-a721-09085fadb73b",
    "atlas": "",
    "rect": [
      0,
      0,
      32,
      32
    ],
    "offset": [
      0,
      0
    ],
    "originalSize": [
      32,
      32
    ],
    "capInsets": [
      0,
      0,
      0,
      0
    ]
  }
}