{
  "__type__": "cc.SpriteFrame",
  "content": {
    "name": "attack10",
    "texture": "385dc93e-f5c7-4427-8eb6-eb2244936628",
    "atlas": "",
    "rect": [
      0,
      0,
      42,
      57
    ],
    "offset": [
      0,
      0
    ],
    "originalSize": [
      42,
      57
    ],
    "capInsets": [
      0,
      0,
      0,
      0
    ]
  }
}