{
  "__type__": "cc.SpriteFrame",
  "content": {
    "name": "Map_tile_08",
    "texture": "802cf2a9-b8ad-44be-b6b7-63512e1f74c3",
    "atlas": "",
    "rect": [
      0,
      0,
      32,
      32
    ],
    "offset": [
      0,
      0
    ],
    "originalSize": [
      32,
      32
    ],
    "capInsets": [
      0,
      0,
      0,
      0
    ]
  }
}