{
  "__type__": "cc.SpriteFrame",
  "content": {
    "name": "left_punch_02",
    "texture": "f4a7e872-efcf-4736-9ea5-aa0e3f4d1dd8",
    "atlas": "",
    "rect": [
      0,
      0,
      57,
      81
    ],
    "offset": [
      0,
      0
    ],
    "originalSize": [
      57,
      81
    ],
    "capInsets": [
      0,
      0,
      0,
      0
    ]
  }
}