{
  "__type__": "cc.SpriteFrame",
  "content": {
    "name": "Map_tile_76",
    "texture": "cfd93cf8-eba3-4ccf-bf95-455644f2cec8",
    "atlas": "",
    "rect": [
      0,
      0,
      32,
      32
    ],
    "offset": [
      0,
      0
    ],
    "originalSize": [
      32,
      32
    ],
    "capInsets": [
      0,
      0,
      0,
      0
    ]
  }
}