{
  "__type__": "cc.SpriteFrame",
  "content": {
    "name": "Icons_02",
    "texture": "ff6c1fea-4c19-48bf-9c6c-81306dcadf6b",
    "atlas": "",
    "rect": [
      2,
      1,
      28,
      30
    ],
    "offset": [
      0,
      0
    ],
    "originalSize": [
      32,
      32
    ],
    "capInsets": [
      0,
      0,
      0,
      0
    ]
  }
}