{
  "__type__": "cc.SpriteFrame",
  "content": {
    "name": "Star1",
    "texture": "0068dbe9-ea72-4eb0-993e-3118c8bd3c10",
    "atlas": "",
    "rect": [
      0,
      0,
      24,
      25
    ],
    "offset": [
      0,
      0
    ],
    "originalSize": [
      24,
      25
    ],
    "capInsets": [
      0,
      0,
      0,
      0
    ]
  }
}