{
  "__type__": "cc.SpriteFrame",
  "content": {
    "name": "hadouken04",
    "texture": "d1d34504-df3d-4d89-87eb-c45934d63232",
    "atlas": "",
    "rect": [
      0,
      0,
      91,
      70
    ],
    "offset": [
      0,
      0
    ],
    "originalSize": [
      91,
      70
    ],
    "capInsets": [
      0,
      0,
      0,
      0
    ]
  }
}