{
  "__type__": "cc.SpriteFrame",
  "content": {
    "name": "attack03",
    "texture": "18ea3fa3-4e7b-4c8d-8637-1ecc0d9b0ff2",
    "atlas": "",
    "rect": [
      0,
      0,
      41,
      62
    ],
    "offset": [
      0,
      0
    ],
    "originalSize": [
      41,
      62
    ],
    "capInsets": [
      0,
      0,
      0,
      0
    ]
  }
}