{
  "__type__": "cc.SpriteFrame",
  "content": {
    "name": "Icons_40",
    "texture": "43ee950c-c31f-4e9e-8ed6-a1e246949f8a",
    "atlas": "",
    "rect": [
      1,
      1,
      29,
      30
    ],
    "offset": [
      -0.5,
      0
    ],
    "originalSize": [
      32,
      32
    ],
    "capInsets": [
      0,
      0,
      0,
      0
    ]
  }
}