{
  "__type__": "cc.SpriteFrame",
  "content": {
    "name": "Map_tile_25",
    "texture": "ee967fc3-0e99-4f28-8b19-dfddf65d63fa",
    "atlas": "",
    "rect": [
      0,
      0,
      32,
      32
    ],
    "offset": [
      0,
      0
    ],
    "originalSize": [
      32,
      32
    ],
    "capInsets": [
      0,
      0,
      0,
      0
    ]
  }
}