{
  "__type__": "cc.SpriteFrame",
  "content": {
    "name": "4",
    "texture": "1719b2da-484b-45b9-b60d-a13678760a97",
    "atlas": "",
    "rect": [
      0,
      0,
      35,
      63
    ],
    "offset": [
      0,
      0
    ],
    "originalSize": [
      35,
      63
    ],
    "capInsets": [
      0,
      0,
      0,
      0
    ]
  }
}