{
  "__type__": "cc.SpriteFrame",
  "content": {
    "name": "6",
    "texture": "8965140f-36c4-47c7-b6ca-f2a1ef06b561",
    "atlas": "",
    "rect": [
      0,
      0,
      11,
      6
    ],
    "offset": [
      0,
      0
    ],
    "originalSize": [
      11,
      6
    ],
    "capInsets": [
      0,
      0,
      0,
      0
    ]
  }
}