{
  "__type__": "cc.SpriteFrame",
  "content": {
    "name": "idle01",
    "texture": "4e0ac133-27d3-4ee3-89a7-1ce1755e0d4e",
    "atlas": "",
    "rect": [
      0,
      0,
      25,
      63
    ],
    "offset": [
      0,
      0
    ],
    "originalSize": [
      25,
      63
    ],
    "capInsets": [
      0,
      0,
      0,
      0
    ]
  }
}