{
  "__type__": "cc.SpriteFrame",
  "content": {
    "name": "Icons_15",
    "texture": "5fcb7a96-6c51-4c9e-8384-8969ae3eae3b",
    "atlas": "",
    "rect": [
      3,
      2,
      27,
      29
    ],
    "offset": [
      0.5,
      -0.5
    ],
    "originalSize": [
      32,
      32
    ],
    "capInsets": [
      0,
      0,
      0,
      0
    ]
  }
}