{
  "__type__": "cc.AnimationClip",
  "_name": "wryOnRoadroller",
  "_objFlags": 0,
  "_native": "",
  "_duration": 0.36666666666666664,
  "sample": 30,
  "speed": 1,
  "wrapMode": 2,
  "curveData": {
    "comps": {
      "cc.Sprite": {
        "spriteFrame": [
          {
            "frame": 0,
            "value": {
              "__uuid__": "a287f39b-265e-43ec-8caa-14203dc5b0c1"
            }
          },
          {
            "frame": 0.16666666666666666,
            "value": {
              "__uuid__": "c13d0726-91a2-494d-bde8-be47f3f29fea"
            }
          },
          {
            "frame": 0.3333333333333333,
            "value": {
              "__uuid__": "a287f39b-265e-43ec-8caa-14203dc5b0c1"
            }
          }
        ]
      }
    }
  },
  "events": []
}