{
  "__type__": "cc.SpriteFrame",
  "content": {
    "name": "Map_tile_46",
    "texture": "c7096f3b-1d9c-4a80-96e2-e76d74a21e3f",
    "atlas": "",
    "rect": [
      0,
      0,
      32,
      32
    ],
    "offset": [
      0,
      0
    ],
    "originalSize": [
      32,
      32
    ],
    "capInsets": [
      0,
      0,
      0,
      0
    ]
  }
}