{
  "__type__": "cc.AnimationClip",
  "_name": "stand",
  "_objFlags": 0,
  "_native": "",
  "_duration": 0.95,
  "sample": 60,
  "speed": 1,
  "wrapMode": 1,
  "curveData": {
    "comps": {
      "cc.Sprite": {
        "spriteFrame": [
          {
            "frame": 0,
            "value": {
              "__uuid__": "810b8dee-610d-4584-b408-c7928077974a"
            }
          },
          {
            "frame": 0.13333333333333333,
            "value": {
              "__uuid__": "edbfd58b-dcd6-420d-a54c-d1560f1d8e9d"
            }
          },
          {
            "frame": 0.23333333333333334,
            "value": {
              "__uuid__": "312fa7f6-7866-4652-acf5-ee9e8f948f6d"
            }
          },
          {
            "frame": 0.36666666666666664,
            "value": {
              "__uuid__": "ac67f79b-c11d-4453-8f45-978dfd0a2b23"
            }
          },
          {
            "frame": 0.5166666666666667,
            "value": {
              "__uuid__": "2c9a6dbd-cd2e-4bd7-a503-d02e8533ff99"
            }
          },
          {
            "frame": 0.65,
            "value": {
              "__uuid__": "9e5a45d0-a718-47a7-8e30-57fe7c402c46"
            }
          },
          {
            "frame": 0.8166666666666667,
            "value": {
              "__uuid__": "65e546ea-64c8-4cda-a6f7-e168b44035fc"
            }
          },
          {
            "frame": 0.9333333333333333,
            "value": {
              "__uuid__": "b7fd862d-ffc7-40bf-bc0f-ca651ffc860e"
            }
          }
        ]
      }
    }
  },
  "events": []
}