{
  "__type__": "cc.SpriteFrame",
  "content": {
    "name": "idle05",
    "texture": "48e47075-78d3-4513-9ac6-8a2d21e4ff6a",
    "atlas": "",
    "rect": [
      0,
      0,
      24,
      62
    ],
    "offset": [
      0,
      0
    ],
    "originalSize": [
      24,
      62
    ],
    "capInsets": [
      0,
      0,
      0,
      0
    ]
  }
}