{
  "__type__": "cc.SpriteFrame",
  "content": {
    "name": "Map_tile_38",
    "texture": "0322f48e-0148-4395-b17b-d0252429b9a0",
    "atlas": "",
    "rect": [
      0,
      0,
      32,
      32
    ],
    "offset": [
      0,
      0
    ],
    "originalSize": [
      32,
      32
    ],
    "capInsets": [
      0,
      0,
      0,
      0
    ]
  }
}