{
  "__type__": "cc.AnimationClip",
  "_name": "attack",
  "_objFlags": 0,
  "_native": "",
  "_duration": 0.5166666666666667,
  "sample": 60,
  "speed": 1,
  "wrapMode": 1,
  "curveData": {
    "comps": {
      "cc.Sprite": {
        "spriteFrame": [
          {
            "frame": 0.016666666666666666,
            "value": {
              "__uuid__": "8ae01b32-801e-49a6-8b04-9cc69e55ba1e"
            }
          },
          {
            "frame": 0.18333333333333332,
            "value": {
              "__uuid__": "b6b07c57-adb5-4367-a449-67312412c772"
            }
          },
          {
            "frame": 0.3333333333333333,
            "value": {
              "__uuid__": "3bdae5d7-0b67-4d63-a66c-f4aa90ca38f0"
            }
          },
          {
            "frame": 0.5,
            "value": {
              "__uuid__": "2c5243f1-ad52-4800-be54-c74c82e9222e"
            }
          }
        ]
      }
    }
  },
  "events": []
}