{
  "__type__": "cc.SpriteFrame",
  "content": {
    "name": "Map_tile_03",
    "texture": "f43cb45c-5192-44e8-8d58-4b7e99a2e4a5",
    "atlas": "",
    "rect": [
      0,
      0,
      32,
      32
    ],
    "offset": [
      0,
      0
    ],
    "originalSize": [
      32,
      32
    ],
    "capInsets": [
      0,
      0,
      0,
      0
    ]
  }
}