{
  "__type__": "cc.SpriteFrame",
  "content": {
    "name": "walk01",
    "texture": "8ccf98ee-9d46-430a-9705-3b94da8bd863",
    "atlas": "",
    "rect": [
      0,
      0,
      43,
      75
    ],
    "offset": [
      0,
      0
    ],
    "originalSize": [
      43,
      75
    ],
    "capInsets": [
      0,
      0,
      0,
      0
    ]
  }
}