{
  "__type__": "cc.SpriteFrame",
  "content": {
    "name": "projectile01",
    "texture": "5d117293-0437-4409-b511-0feac3991147",
    "atlas": "",
    "rect": [
      0,
      0,
      34,
      48
    ],
    "offset": [
      0,
      0
    ],
    "originalSize": [
      34,
      48
    ],
    "capInsets": [
      0,
      0,
      0,
      0
    ]
  }
}