{
  "__type__": "cc.SpriteFrame",
  "content": {
    "name": "Fog_16",
    "texture": "41b5b4ef-8785-4725-bc5e-6192d052e53d",
    "atlas": "",
    "rect": [
      0,
      0,
      32,
      32
    ],
    "offset": [
      0,
      0
    ],
    "originalSize": [
      32,
      32
    ],
    "capInsets": [
      0,
      0,
      0,
      0
    ]
  }
}