{
  "__type__": "cc.SpriteFrame",
  "content": {
    "name": "fist04",
    "texture": "9fcaea4f-1c94-42b4-a067-b1581cef15bb",
    "atlas": "",
    "rect": [
      0,
      0,
      31,
      63
    ],
    "offset": [
      0,
      0
    ],
    "originalSize": [
      31,
      63
    ],
    "capInsets": [
      0,
      0,
      0,
      0
    ]
  }
}