{
  "__type__": "cc.SpriteFrame",
  "content": {
    "name": "Map_tile_101",
    "texture": "20cae183-65fb-4433-b7ec-9268141bb061",
    "atlas": "",
    "rect": [
      6,
      6,
      26,
      26
    ],
    "offset": [
      3,
      -3
    ],
    "originalSize": [
      32,
      32
    ],
    "capInsets": [
      0,
      0,
      0,
      0
    ]
  }
}