{
  "__type__": "cc.SpriteFrame",
  "content": {
    "name": "Icons_33",
    "texture": "948fc78b-5811-4df0-9d19-3a2043077ba8",
    "atlas": "",
    "rect": [
      1,
      4,
      30,
      27
    ],
    "offset": [
      0,
      -1.5
    ],
    "originalSize": [
      32,
      32
    ],
    "capInsets": [
      0,
      0,
      0,
      0
    ]
  }
}