{
  "__type__": "cc.AnimationClip",
  "_name": "bullet_ryu",
  "_objFlags": 0,
  "_native": "",
  "_duration": 1.6,
  "sample": 60,
  "speed": 1,
  "wrapMode": 1,
  "curveData": {
    "comps": {
      "cc.Sprite": {
        "spriteFrame": [
          {
            "frame": 0,
            "value": {
              "__uuid__": "e68ed0cb-0977-4827-993d-831b58163677"
            }
          },
          {
            "frame": 0.08333333333333333,
            "value": {
              "__uuid__": "29d4a3e8-2084-4d36-b726-3f6daeae818c"
            }
          },
          {
            "frame": 0.16666666666666666,
            "value": {
              "__uuid__": "a04aafce-6eff-43de-8ac6-8e8f3f7f0bbd"
            }
          },
          {
            "frame": 0.25,
            "value": {
              "__uuid__": "e3ea4a8e-7db9-40c1-a271-bd3f587dd7de"
            }
          },
          {
            "frame": 0.3333333333333333,
            "value": {
              "__uuid__": "0bbd2066-54af-4576-a610-0d75e15b4773"
            }
          },
          {
            "frame": 0.4166666666666667,
            "value": {
              "__uuid__": "c63d01e4-1fcb-4559-a84f-9e31bcdd79c9"
            }
          },
          {
            "frame": 0.5,
            "value": {
              "__uuid__": "3f0ab2ec-98b3-4fb8-8c36-a2479025340c"
            }
          },
          {
            "frame": 0.5833333333333334,
            "value": {
              "__uuid__": "29703c80-67a6-4b54-8032-c04ea0f8b4ca"
            }
          },
          {
            "frame": 0.6666666666666666,
            "value": {
              "__uuid__": "899b0da6-0c78-4126-be87-f187aac107ed"
            }
          },
          {
            "frame": 0.75,
            "value": {
              "__uuid__": "abb0e1cc-22ba-4bfa-a9b6-fb8402a4ba49"
            }
          },
          {
            "frame": 0.8333333333333334,
            "value": {
              "__uuid__": "f5216c3d-36c5-42c6-8107-88cee8aae3ab"
            }
          },
          {
            "frame": 0.9166666666666666,
            "value": {
              "__uuid__": "66a3e792-7b54-4147-8cce-967f2acf162b"
            }
          },
          {
            "frame": 1,
            "value": {
              "__uuid__": "1e82a2f1-3211-4dc5-9549-9a2bd623956a"
            }
          },
          {
            "frame": 1.0833333333333333,
            "value": {
              "__uuid__": "66a3e792-7b54-4147-8cce-967f2acf162b"
            }
          },
          {
            "frame": 1.1666666666666667,
            "value": {
              "__uuid__": "1e82a2f1-3211-4dc5-9549-9a2bd623956a"
            }
          },
          {
            "frame": 1.25,
            "value": {
              "__uuid__": "8865e1a9-079f-4a4e-ad26-7d1eed12fed6"
            }
          },
          {
            "frame": 1.3333333333333333,
            "value": {
              "__uuid__": "2f25a21f-efe6-450f-b12d-54e3fe918e6f"
            }
          },
          {
            "frame": 1.4166666666666667,
            "value": {
              "__uuid__": "70a1fda4-a364-4f8a-8fc9-2da3a95cc9fe"
            }
          },
          {
            "frame": 1.5,
            "value": {
              "__uuid__": "0dcf0e69-196b-4fb0-9a46-6d0d8554614c"
            }
          },
          {
            "frame": 1.5833333333333333,
            "value": {
              "__uuid__": "5fc4ffc8-4def-4c09-8c44-113c97dcb786"
            }
          }
        ]
      }
    }
  },
  "events": []
}