{
  "__type__": "cc.SpriteFrame",
  "content": {
    "name": "Map_tile_22",
    "texture": "8d8ab23b-2571-4e74-9795-86f1bde4720a",
    "atlas": "",
    "rect": [
      0,
      0,
      32,
      32
    ],
    "offset": [
      0,
      0
    ],
    "originalSize": [
      32,
      32
    ],
    "capInsets": [
      0,
      0,
      0,
      0
    ]
  }
}