{
  "__type__": "cc.SpriteFrame",
  "content": {
    "name": "run03",
    "texture": "f1d41702-87b2-43cc-8b09-8381a5e9da53",
    "atlas": "",
    "rect": [
      0,
      0,
      53,
      44
    ],
    "offset": [
      0,
      0
    ],
    "originalSize": [
      53,
      44
    ],
    "capInsets": [
      0,
      0,
      0,
      0
    ]
  }
}