{
  "__type__": "cc.SpriteFrame",
  "content": {
    "name": "Map_tile_98",
    "texture": "335d5fc6-a4be-4912-9b7e-dac2eeafeb63",
    "atlas": "",
    "rect": [
      0,
      0,
      32,
      32
    ],
    "offset": [
      0,
      0
    ],
    "originalSize": [
      32,
      32
    ],
    "capInsets": [
      0,
      0,
      0,
      0
    ]
  }
}