{
  "__type__": "cc.SpriteFrame",
  "content": {
    "name": "Map_tile_107",
    "texture": "3e161d0e-f0a2-49f5-99ea-a24dbe895dcf",
    "atlas": "",
    "rect": [
      0,
      0,
      32,
      32
    ],
    "offset": [
      0,
      0
    ],
    "originalSize": [
      32,
      32
    ],
    "capInsets": [
      0,
      0,
      0,
      0
    ]
  }
}