{
  "__type__": "cc.SpriteFrame",
  "content": {
    "name": "idle04",
    "texture": "63460c2d-f136-487a-8611-c5348c566db2",
    "atlas": "",
    "rect": [
      0,
      0,
      43,
      82
    ],
    "offset": [
      0,
      0
    ],
    "originalSize": [
      43,
      82
    ],
    "capInsets": [
      0,
      0,
      0,
      0
    ]
  }
}