{
  "__type__": "cc.SpriteFrame",
  "content": {
    "name": "5",
    "texture": "a9487f38-e0ac-4353-bc8c-2d8147642d53",
    "atlas": "",
    "rect": [
      0,
      0,
      60,
      47
    ],
    "offset": [
      0,
      0
    ],
    "originalSize": [
      60,
      47
    ],
    "capInsets": [
      0,
      0,
      0,
      0
    ]
  }
}