{
  "__type__": "cc.SpriteFrame",
  "content": {
    "name": "4",
    "texture": "e73fc477-66b9-48da-bc03-7462e07272a8",
    "atlas": "",
    "rect": [
      0,
      0,
      44,
      52
    ],
    "offset": [
      0,
      0
    ],
    "originalSize": [
      44,
      52
    ],
    "capInsets": [
      0,
      0,
      0,
      0
    ]
  }
}