{
  "__type__": "cc.SpriteFrame",
  "content": {
    "name": "zawarudo_attacking03",
    "texture": "38e03eff-db56-49f1-a0d6-cd088d5daba7",
    "atlas": "",
    "rect": [
      0,
      0,
      90,
      76
    ],
    "offset": [
      0,
      0
    ],
    "originalSize": [
      90,
      76
    ],
    "capInsets": [
      0,
      0,
      0,
      0
    ]
  }
}