{
  "__type__": "cc.SpriteFrame",
  "content": {
    "name": "Map_tile_105",
    "texture": "6bfb2537-20fe-4668-b897-2b2951f15934",
    "atlas": "",
    "rect": [
      6,
      0,
      26,
      32
    ],
    "offset": [
      3,
      0
    ],
    "originalSize": [
      32,
      32
    ],
    "capInsets": [
      0,
      0,
      0,
      0
    ]
  }
}