{
  "__type__": "cc.SpriteFrame",
  "content": {
    "name": "DIO",
    "texture": "8feee72a-e0ce-46af-88d2-16517cd550d8",
    "atlas": "",
    "rect": [
      0,
      0,
      618,
      3812
    ],
    "offset": [
      0,
      0
    ],
    "originalSize": [
      618,
      3812
    ],
    "capInsets": [
      0,
      0,
      0,
      0
    ]
  }
}