{
  "__type__": "cc.SpriteFrame",
  "content": {
    "name": "Icons_38",
    "texture": "56a98279-763b-4cd8-867b-1159a449f644",
    "atlas": "",
    "rect": [
      1,
      8,
      30,
      17
    ],
    "offset": [
      0,
      -0.5
    ],
    "originalSize": [
      32,
      32
    ],
    "capInsets": [
      0,
      0,
      0,
      0
    ]
  }
}