{
  "__type__": "cc.SpriteFrame",
  "content": {
    "name": "2",
    "texture": "4ae4d1a4-bb00-4838-ada1-27f21ff7c0d5",
    "atlas": "",
    "rect": [
      0,
      0,
      24,
      20
    ],
    "offset": [
      0,
      0
    ],
    "originalSize": [
      24,
      20
    ],
    "capInsets": [
      0,
      0,
      0,
      0
    ]
  }
}