{
  "__type__": "cc.SpriteFrame",
  "content": {
    "name": "Icons_36",
    "texture": "a7479793-4e7a-4ad5-a370-e76611923355",
    "atlas": "",
    "rect": [
      0,
      0,
      32,
      32
    ],
    "offset": [
      0,
      0
    ],
    "originalSize": [
      32,
      32
    ],
    "capInsets": [
      0,
      0,
      0,
      0
    ]
  }
}