{
  "__type__": "cc.SpriteFrame",
  "content": {
    "name": "projectile03",
    "texture": "f770800f-d142-45ec-9731-5eb5fbbec1f5",
    "atlas": "",
    "rect": [
      0,
      0,
      33,
      24
    ],
    "offset": [
      0,
      0
    ],
    "originalSize": [
      33,
      24
    ],
    "capInsets": [
      0,
      0,
      0,
      0
    ]
  }
}