{
  "__type__": "cc.SpriteFrame",
  "content": {
    "name": "Map_tile_104",
    "texture": "d200ee46-6a9a-4366-af8a-4f91fb96d792",
    "atlas": "",
    "rect": [
      0,
      0,
      32,
      26
    ],
    "offset": [
      0,
      3
    ],
    "originalSize": [
      32,
      32
    ],
    "capInsets": [
      0,
      0,
      0,
      0
    ]
  }
}