{
  "__type__": "cc.SpriteFrame",
  "content": {
    "name": "Map_tile_04",
    "texture": "d3f9217a-ef78-4263-98de-4441cb6ebe32",
    "atlas": "",
    "rect": [
      0,
      0,
      32,
      32
    ],
    "offset": [
      0,
      0
    ],
    "originalSize": [
      32,
      32
    ],
    "capInsets": [
      0,
      0,
      0,
      0
    ]
  }
}