{
  "__type__": "cc.SpriteFrame",
  "content": {
    "name": "Stars",
    "texture": "e2c5eedf-8244-4ac1-9167-df03c11d08fb",
    "atlas": "",
    "rect": [
      0,
      0,
      70,
      33
    ],
    "offset": [
      0,
      0
    ],
    "originalSize": [
      70,
      33
    ],
    "capInsets": [
      0,
      0,
      0,
      0
    ]
  }
}