{
  "__type__": "cc.SpriteFrame",
  "content": {
    "name": "9",
    "texture": "c76e0817-dd32-4e42-9867-2c3f973beae5",
    "atlas": "",
    "rect": [
      0,
      0,
      10,
      7
    ],
    "offset": [
      0,
      0
    ],
    "originalSize": [
      10,
      7
    ],
    "capInsets": [
      0,
      0,
      0,
      0
    ]
  }
}