{
  "__type__": "cc.SpriteFrame",
  "content": {
    "name": "10",
    "texture": "dbc8aacb-b38d-4609-9a89-fae0ff230c3b",
    "atlas": "",
    "rect": [
      0,
      0,
      11,
      8
    ],
    "offset": [
      0,
      0
    ],
    "originalSize": [
      11,
      8
    ],
    "capInsets": [
      0,
      0,
      0,
      0
    ]
  }
}